<mxfile host="app.diagrams.net" modified="2024-07-02T18:01:22.025Z" agent="Mozilla/5.0 (Windows NT 10.0; Win64; x64) AppleWebKit/537.36 (KHTML, like Gecko) Chrome/126.0.0.0 Safari/537.36" etag="xgTW4iTXNXYQa3Su1b-v" version="24.6.4" type="gitlab">
  <diagram name="Page-1" id="8YnRMzlx8SrHSX0k24qc">
    <mxGraphModel dx="1290" dy="607" grid="1" gridSize="10" guides="1" tooltips="1" connect="1" arrows="1" fold="1" page="1" pageScale="1" pageWidth="1169" pageHeight="827" math="0" shadow="0">
      <root>
        <mxCell id="0" />
        <mxCell id="1" parent="0" />
        <mxCell id="VZXp8lbbSuIA9lCKbI_Q-2" value="" style="swimlane;startSize=0;" parent="1" vertex="1">
          <mxGeometry x="480" y="140" width="310" height="140" as="geometry" />
        </mxCell>
        <mxCell id="VZXp8lbbSuIA9lCKbI_Q-3" value="&lt;b&gt;&amp;nbsp; &amp;nbsp; Country&lt;/b&gt;" style="text;html=1;align=center;verticalAlign=middle;resizable=0;points=[];autosize=1;strokeColor=none;fillColor=none;" parent="VZXp8lbbSuIA9lCKbI_Q-2" vertex="1">
          <mxGeometry x="-5" width="80" height="30" as="geometry" />
        </mxCell>
        <mxCell id="VZXp8lbbSuIA9lCKbI_Q-5" value="- name:&amp;nbsp;&lt;span style=&quot;white-space: pre;&quot;&gt;&#x9;&lt;/span&gt;&lt;span style=&quot;white-space: pre;&quot;&gt;&#x9;&lt;span style=&quot;white-space: pre;&quot;&gt;&#x9;&lt;/span&gt;&lt;/span&gt;String&lt;div&gt;- Sections:&lt;span style=&quot;white-space: pre;&quot;&gt;&#x9;&lt;span style=&quot;white-space: pre;&quot;&gt;&#x9;&lt;/span&gt;A&lt;/span&gt;rray&amp;lt;Section&amp;gt;&lt;/div&gt;" style="text;html=1;align=left;verticalAlign=middle;resizable=0;points=[];autosize=1;strokeColor=none;fillColor=none;" parent="VZXp8lbbSuIA9lCKbI_Q-2" vertex="1">
          <mxGeometry x="15" y="30" width="210" height="40" as="geometry" />
        </mxCell>
        <mxCell id="VZXp8lbbSuIA9lCKbI_Q-8" value="" style="swimlane;startSize=0;" parent="1" vertex="1">
          <mxGeometry x="140" y="140" width="280" height="150" as="geometry" />
        </mxCell>
        <mxCell id="VZXp8lbbSuIA9lCKbI_Q-12" value="&lt;span style=&quot;&quot;&gt;- name: &lt;span style=&quot;white-space: pre;&quot;&gt;&#x9;&lt;/span&gt;&lt;span style=&quot;white-space: pre;&quot;&gt;&#x9;&lt;span style=&quot;white-space: pre;&quot;&gt;&#x9;&lt;span style=&quot;white-space: pre;&quot;&gt;&#x9;&lt;/span&gt;&lt;/span&gt;&lt;/span&gt;String&lt;/span&gt;&lt;div&gt;&lt;span style=&quot;&quot;&gt;- email: &lt;span style=&quot;white-space: pre;&quot;&gt;&#x9;&lt;/span&gt;&lt;span style=&quot;white-space: pre;&quot;&gt;&#x9;&lt;/span&gt;&lt;span style=&quot;white-space: pre;&quot;&gt;&#x9;&lt;span style=&quot;white-space: pre;&quot;&gt;&#x9;&lt;/span&gt;&lt;/span&gt;String&lt;/span&gt;&lt;div&gt;&lt;span style=&quot;background-color: initial;&quot;&gt;- phone_number: &lt;span style=&quot;white-space: pre;&quot;&gt;&#x9;&lt;span style=&quot;white-space: pre;&quot;&gt;&#x9;&lt;/span&gt;S&lt;/span&gt;tring&lt;/span&gt;&lt;br&gt;&lt;/div&gt;&lt;/div&gt;&lt;div&gt;&lt;span style=&quot;background-color: initial;&quot;&gt;- Street: &lt;span style=&quot;white-space: pre;&quot;&gt;&#x9;&lt;/span&gt;&lt;span style=&quot;white-space: pre;&quot;&gt;&#x9;&lt;/span&gt;&lt;span style=&quot;white-space: pre;&quot;&gt;&#x9;&lt;span style=&quot;white-space: pre;&quot;&gt;&#x9;&lt;/span&gt;&lt;/span&gt;String&lt;/span&gt;&lt;/div&gt;&lt;div&gt;&lt;span style=&quot;background-color: initial;&quot;&gt;- Postcode: &lt;span style=&quot;white-space: pre;&quot;&gt;&#x9;&lt;/span&gt;&lt;span style=&quot;white-space: pre;&quot;&gt;&#x9;&lt;span style=&quot;white-space: pre;&quot;&gt;&#x9;&lt;/span&gt;&lt;/span&gt;String&lt;/span&gt;&lt;/div&gt;&lt;div&gt;&lt;span style=&quot;background-color: initial;&quot;&gt;- City: &lt;span style=&quot;white-space: pre;&quot;&gt;&#x9;&lt;/span&gt;&lt;span style=&quot;white-space: pre;&quot;&gt;&#x9;&lt;/span&gt;&lt;span style=&quot;white-space: pre;&quot;&gt;&#x9;&lt;span style=&quot;white-space: pre;&quot;&gt;&#x9;&lt;/span&gt;&lt;/span&gt;String&lt;/span&gt;&lt;/div&gt;&lt;div&gt;&lt;span style=&quot;background-color: initial;&quot;&gt;- joinedAt:&lt;span style=&quot;white-space: pre;&quot;&gt;&#x9;&lt;/span&gt;&lt;span style=&quot;white-space: pre;&quot;&gt;&#x9;&lt;/span&gt;&lt;span style=&quot;white-space: pre;&quot;&gt;&#x9;&lt;/span&gt;date&lt;/span&gt;&lt;/div&gt;&lt;div&gt;&lt;span style=&quot;background-color: initial;&quot;&gt;- SectionID:&lt;span style=&quot;white-space: pre;&quot;&gt;&#x9;&lt;/span&gt;&lt;span style=&quot;white-space: pre;&quot;&gt;&#x9;&lt;/span&gt;&lt;span style=&quot;white-space: pre;&quot;&gt;&#x9;&lt;/span&gt;int&lt;/span&gt;&lt;/div&gt;" style="text;html=1;align=left;verticalAlign=middle;resizable=0;points=[];autosize=1;strokeColor=none;fillColor=none;" parent="VZXp8lbbSuIA9lCKbI_Q-8" vertex="1">
          <mxGeometry x="20" y="20" width="190" height="130" as="geometry" />
        </mxCell>
        <mxCell id="VZXp8lbbSuIA9lCKbI_Q-13" value="&lt;b&gt;Person&lt;/b&gt;" style="text;html=1;align=center;verticalAlign=middle;resizable=0;points=[];autosize=1;strokeColor=none;fillColor=none;" parent="VZXp8lbbSuIA9lCKbI_Q-8" vertex="1">
          <mxGeometry x="10" width="60" height="30" as="geometry" />
        </mxCell>
        <mxCell id="VZXp8lbbSuIA9lCKbI_Q-32" value="" style="endArrow=none;html=1;rounded=0;exitX=0.999;exitY=0.515;exitDx=0;exitDy=0;entryX=0.5;entryY=0;entryDx=0;entryDy=0;exitPerimeter=0;" parent="VZXp8lbbSuIA9lCKbI_Q-8" target="VZXp8lbbSuIA9lCKbI_Q-21" edge="1">
          <mxGeometry width="50" height="50" relative="1" as="geometry">
            <mxPoint x="140" y="150" as="sourcePoint" />
            <mxPoint x="320" y="174" as="targetPoint" />
          </mxGeometry>
        </mxCell>
        <mxCell id="VZXp8lbbSuIA9lCKbI_Q-20" value="" style="endArrow=none;html=1;rounded=0;exitX=0.999;exitY=0.515;exitDx=0;exitDy=0;entryX=0;entryY=0.5;entryDx=0;entryDy=0;exitPerimeter=0;" parent="1" source="VZXp8lbbSuIA9lCKbI_Q-8" target="VZXp8lbbSuIA9lCKbI_Q-26" edge="1">
          <mxGeometry width="50" height="50" relative="1" as="geometry">
            <mxPoint x="600" y="440" as="sourcePoint" />
            <mxPoint x="650" y="390" as="targetPoint" />
          </mxGeometry>
        </mxCell>
        <mxCell id="VZXp8lbbSuIA9lCKbI_Q-26" value="" style="swimlane;startSize=0;" parent="1" vertex="1">
          <mxGeometry x="600" y="212.5" width="180" height="57.5" as="geometry" />
        </mxCell>
        <mxCell id="VZXp8lbbSuIA9lCKbI_Q-27" value="&lt;b&gt;Section&lt;/b&gt;" style="text;html=1;align=center;verticalAlign=middle;resizable=0;points=[];autosize=1;strokeColor=none;fillColor=none;" parent="VZXp8lbbSuIA9lCKbI_Q-26" vertex="1">
          <mxGeometry width="70" height="30" as="geometry" />
        </mxCell>
        <mxCell id="VZXp8lbbSuIA9lCKbI_Q-28" value="- name:&lt;span style=&quot;white-space: pre;&quot;&gt;&#x9;&lt;/span&gt;&lt;span style=&quot;white-space: pre;&quot;&gt;&#x9;&lt;/span&gt;&lt;span style=&quot;white-space: pre;&quot;&gt;&#x9;&lt;/span&gt;String&lt;div&gt;- founded:&lt;span style=&quot;white-space: pre;&quot;&gt;&#x9;&lt;/span&gt;&lt;span style=&quot;white-space: pre;&quot;&gt;&#x9;&lt;/span&gt;date&lt;/div&gt;" style="text;html=1;align=left;verticalAlign=middle;resizable=0;points=[];autosize=1;strokeColor=none;fillColor=none;" parent="VZXp8lbbSuIA9lCKbI_Q-26" vertex="1">
          <mxGeometry x="20" y="17.5" width="160" height="40" as="geometry" />
        </mxCell>
        <mxCell id="VZXp8lbbSuIA9lCKbI_Q-21" value="" style="whiteSpace=wrap;html=1;" parent="1" vertex="1">
          <mxGeometry x="176.25" y="340" width="207.5" height="80" as="geometry" />
        </mxCell>
        <mxCell id="VZXp8lbbSuIA9lCKbI_Q-23" value="&lt;b&gt;Workgroup&lt;/b&gt;" style="text;html=1;align=center;verticalAlign=middle;whiteSpace=wrap;rounded=0;" parent="1" vertex="1">
          <mxGeometry x="192.5" y="340" width="60" height="30" as="geometry" />
        </mxCell>
        <mxCell id="VZXp8lbbSuIA9lCKbI_Q-22" value="- name: &lt;span style=&quot;white-space: pre;&quot;&gt;&#x9;&lt;span style=&quot;white-space: pre;&quot;&gt;&#x9;&lt;/span&gt;&lt;/span&gt;String&lt;div&gt;- desc: &lt;span style=&quot;white-space: pre;&quot;&gt;&#x9;&lt;span style=&quot;white-space: pre;&quot;&gt;&#x9;&lt;/span&gt;&lt;/span&gt;String&lt;/div&gt;&lt;div&gt;- members:&lt;span style=&quot;white-space: pre;&quot;&gt;&#x9;&lt;/span&gt;Array&amp;lt;PersonID&amp;gt;&lt;/div&gt;" style="text;html=1;align=left;verticalAlign=middle;resizable=0;points=[];autosize=1;strokeColor=none;fillColor=none;" parent="1" vertex="1">
          <mxGeometry x="192.5" y="360" width="200" height="60" as="geometry" />
        </mxCell>
      </root>
    </mxGraphModel>
  </diagram>
</mxfile>
